{
  "title": "Screen",
  "templateType": "experience-fragment-web",
  ":items": {
    "root": {
      "columnCount": 12,
      "gridClassNames": "aem-Grid aem-Grid--12 aem-Grid--default--12",
      ":items": {
        "contactus_form": {
          "columnClassNames": "aem-GridColumn aem-GridColumn--default--12",
          "heading": "Hello George",
          "firstNameLabel": "First Name",
          "lastNameLabel": "Romanas",
          "emailLabel": "My EMail",
          "commentsLabel": "some comments hello !!!!!!",
          "submitBtnText": "Let us know!",
          "contactUsServletPath": "/services/contact-us-form/submit",
          "configured": true,
          ":type": "pli/components/content/contactus-form"
        },
        "buttonlink": {
          "columnClassNames": "aem-GridColumn aem-GridColumn--default--12",
          "linkTo": "www.",
          "text": "A Button Link",
          "buttonType": "ltr-btn-primary",
          "configured": true,
          ":type": "pli/components/content/buttonlink"
        }
      },
      ":itemsOrder": [
        "contactus_form",
        "buttonlink"
      ],
      ":type": "wcm/foundation/components/responsivegrid"
    }
  },
  ":itemsOrder": [
    "root"
  ],
  ":type": "pli/components/structure/xfpage"
}